{
  "name": "Dosaygo Coder 0 GitHub Human Page",
  "tagline": "by Cris",
  "body": "### Projects\r\n\r\n- Extensions for JavaScript ( async, types, loader, tasks, and so on ) - [postjs](/postjs)\r\n- A tiny GitHub Pages project page served on a custom domain - [microsite](/microsite)\r\n- Short, general and direct demonstrations of computation concepts - [Computation Concepts Demonstrated](/computation-concepts-demonstrated/)\r\n\r\n### Company\r\n\r\n[DOSAYGO](https://dosaygo.com)\r\n",
  "note": "Don't delete this file! It's used internally to help with page regeneration."
}